…
1. 63.7 +-6
2. 23.9% +- 6
3. 2% +- (0.08 - 5.1)



<div class="layout-chunk" data-layout="l-body">

```
[1] "location: -0.777820536051909"
[1] "shape: 1.04124752343604"
```

```
# A tibble: 1,000 x 4
# Groups:   individual [1,000]
   individual paper_num QRP_rate_indiv QRP_yes  
        <int> <list>             <dbl> <list>   
 1          1 <int [2]>          0.682 <int [2]>
 2          2 <int [7]>          0.654 <int [7]>
 3          3 <int [9]>          0.678 <int [9]>
 4          4 <int [1]>          0.590 <int [1]>
 5          5 <int [1]>          0.576 <int [1]>
 6          6 <int [1]>          0.539 <int [1]>
 7          7 <int [1]>          0.601 <int [1]>
 8          8 <int [2]>          0.587 <int [2]>
 9          9 <int [7]>          0.643 <int [7]>
10         10 <int [1]>          0.624 <int [1]>
# ... with 990 more rows
```

```
# A tibble: 1,000 x 4
   individual     j count_qrp  p_ij
        <int> <int>     <int> <dbl>
 1          1     3         1 0.333
 2          2    28         3 0.107
 3          3    45         8 0.178
 4          4     1         0 0    
 5          5     1         1 1    
 6          6     1         1 1    
 7          7     1         1 1    
 8          8     3         2 0.667
 9          9    28         4 0.143
10         10     1         1 1    
# ... with 990 more rows
```
…
